"repId","repTypeId","workWeekId","externalId","repName","latitude","longitude","timeZoneId","isActivated","isDeleted","seConfigId","createdAt","updatedAt"
1505,1041,1001,"00580000002EZNTAA4","Nancy Woodmansee",NA,NA,"America/Chicago",1,0,592,"2015-11-14 14:26:29","2017-10-07 21:41:24"
1605,1041,1001,"005A0000000MgcGIAS","Jeffery Allison",NA,NA,"America/New_York",1,0,597,"2015-11-14 14:26:37","2017-10-18 23:30:47"
1623,1041,1001,"005A0000000Mgj3IAC","Michael Mull",NA,NA,"America/Chicago",1,0,583,"2015-11-14 14:26:38","2017-10-14 21:50:34"
